{
  "data": [
    {
      "id": 11,
      "documentId": "rq45bxeio5v8tektkvsj5g1d",
      "slug": "belajar-golang",
      "title": "Belajar Golang",
      "description": "Golang (atau biasa disebut dengan Go) adalah bahasa pemrograman yang dikembangkan di Google",
      "publishedAt": "2025-01-21T07:22:22.779Z",
      "author": "admin3",
      "body": "Golang (atau biasa disebut dengan Go) adalah bahasa pemrograman yang dikembangkan di Google oleh Robert Griesemer, Rob Pike, dan Ken Thompson pada tahun 2007 dan mulai diperkenalkan ke publik tahun 2009.\n\nPenciptaan bahasa Go didasari bahasa C dan C++, oleh karena itu gaya sintaksnya mirip.\n\nKelebihan Go\nGo memiliki kelebihan dibanding bahasa lainnya, beberapa di antaranya:\n\nMendukung konkurensi di level bahasa dengan pengaplikasian cukup mudah\nMendukung pemrosesan data dengan banyak prosesor dalam waktu yang bersamaan (pararel processing)\nMemiliki garbage collector\nProses kompilasi sangat cepat\nBukan bahasa pemrograman yang hirarkial dan bukan strict OOP, memberikan kebebasan ke developer perihal bagaimana cara penulisan kode.\nDependensi dan tooling yang disediakan terbilang lengkap.\nDukungan komunitas sangat bagus. Banyak tools yang tersedia secara gratis dan open source yang bisa langsung dimanfaatkan.\nSudah banyak industri dan perusahaan yg menggunakan Go sampai level production, termasuk di antaranya adalah Google sendiri, dan juga tempat di mana penulis bekerja 😁\n\nPada buku ini (terutama semua serial chapter A) kita akan belajar tentang dasar pemrograman Go, mulai dari 0, dan gratis.",
      "image": {
        "id": 5,
        "documentId": "bgk3f327xk7qqe8zxknmrrlc",
        "url": "/uploads/image_5_13696272be.png"
      }
    },
    {
      "id": 9,
      "documentId": "v3dugrr0ijmp851ihk1dr0wc",
      "slug": "belajar-next-js",
      "title": "Belajar Next.js",
      "description": "Next.js is a React framework for building full-stack web applications",
      "publishedAt": "2025-01-21T07:20:42.625Z",
      "author": "admin",
      "body": "Next.js is a React framework for building full-stack web applications. You use React Components to build user interfaces, and Next.js for additional features and optimizations.\n\nUnder the hood, Next.js also abstracts and automatically configures tooling needed for React, like bundling, compiling, and more. This allows you to focus on building your application instead of spending time with configuration.\n\nWhether you're an individual developer or part of a larger team, Next.js can help you build interactive, dynamic, and fast React applications.",
      "image": {
        "id": 2,
        "documentId": "juzplsi1o4m8egrwkx1gt70r",
        "url": "/uploads/image_1_35cd9cbfe8.png"
      }
    },
    {
      "id": 8,
      "documentId": "o4h4c0oq5ghm86u8etkwkunl",
      "slug": "belajar-react-js",
      "title": "Belajar React JS",
      "description": "React JS is a JavaScript library for building user interfaces",
      "publishedAt": "2025-01-21T07:20:10.718Z",
      "author": "admin2",
      "body": "React JS is a JavaScript library for building user interfaces. You use React Components to build user interfaces, and React for additional features and optimizations.\n\nUnder the hood, React JS also abstracts and automatically configures tooling needed for JavaScript, like bundling, compiling, and more. This allows you to focus on building your application instead of spending time with configuration.\n\nWhether you're an individual developer or part of a larger team, React JS can help you build interactive, dynamic, and fast JavaScript applications.",
      "image": {
        "id": 3,
        "documentId": "ar2wxrt4uqekp59yg9cb0mvj",
        "url": "/uploads/image_2_32ad3ffa87.png"
      }
    }
  ],
  "meta": {
    "pagination": {
      "page": 1,
      "pageSize": 3,
      "pageCount": 2,
      "total": 4
    }
  }
}